{
  "name" : "B. Middle Class",
  "testType" : "SINGLE",
  "input" : {
    "type" : "STANDARD",
    "fileName" : "input.txt"
  },
  "output" : {
    "type" : "STANDARD",
    "fileName" : "output.txt"
  },
  "tests" : [ {
    "input" : "4\n4 3\n5 1 2 1\n4 10\n11 9 11 9\n2 5\n4 3\n3 7\n9 4 9\n",
    "output" : "2\n4\n0\n3\n",
    "index" : 0,
    "active" : true
  }, {
    "input" : "4\n4 30\n5 1 2 1\n4 10\n11 11 11 11\n2 5\n4 3\n100 10\n10 10 10 10 10 10 10 10 10 10 10 10 10 10 10 10 10 10 10 10 10 10 10 10 10 10 10 10 10 10 10 10 10 10 10 10 10 10 10 10 10 10 10 10 10 10 10 10 10 10 10 10 10 10 10 10 10 10 10 10 10 10 10 10 10 10 10 10 10 10 10 10 10 10 10 10 10 10 10 10 10 10 10 10 10 10 10 10 10 10 10 10 10 10 10 10 10 10 10 9\n",
    "output" : "0\n4\n0\n99",
    "index" : 1,
    "active" : true
  } ],
  "location" : "src/main",
  "vmArgs" : "-Xmx256M",
  "mainClass" : "Main",
  "taskClass" : "main.BMiddleClass",
  "checkerClass" : "net.egork.chelper.checkers.TokenChecker",
  "checkerParameters" : "",
  "testClasses" : [ ],
  "date" : "2020.04.10",
  "contestName" : "Educational Codeforces Round 85 (Rated for Div. 2)",
  "truncate" : true,
  "inputClass" : "java.util.Scanner",
  "outputClass" : "java.io.PrintWriter",
  "includeLocale" : false,
  "failOnOverflow" : false,
  "interactive" : false,
  "interactor" : "net.egork.chelper.tester.Interactor"
}