{
  "name" : "C - Alternating Subsequence",
  "testType" : "SINGLE",
  "input" : {
    "type" : "STANDARD"
  },
  "output" : {
    "type" : "STANDARD"
  },
  "tests" : [ {
    "input" : "4\n5\n1 2 3 -1 -2\n4\n-1 -2 -1 -3\n10\n-2 8 3 8 -4 -15 5 -2 -3 1\n6\n1 -1000000000 1 -1000000000 1 -1000000000\n",
    "output" : "2\n-1\n6\n-2999999997\n",
    "index" : 0,
    "active" : true
  } ],
  "location" : "src/de/eigenfunk",
  "vmArgs" : "-Xmx256M",
  "mainClass" : "Main",
  "taskClass" : "de.eigenfunk.TaskC",
  "checkerClass" : "net.egork.chelper.checkers.TokenChecker",
  "checkerParameters" : "",
  "testClasses" : [ ],
  "date" : "2020.04.21",
  "contestName" : "Codeforces Round #636 (Div. 3)",
  "truncate" : true,
  "inputClass" : "fastIO.InputReader",
  "outputClass" : "java.io.PrintWriter",
  "includeLocale" : false,
  "failOnOverflow" : false,
  "interactive" : false
}