{
  "name" : "B. Kuroni and Simple Strings",
  "testType" : "SINGLE",
  "input" : {
    "type" : "STANDARD",
    "fileName" : "input.txt"
  },
  "output" : {
    "type" : "STANDARD",
    "fileName" : "output.txt"
  },
  "tests" : [ {
    "input" : "(()((\n",
    "output" : "1\n2\n1 3 \n",
    "index" : 0,
    "active" : true
  }, {
    "input" : ")(\n",
    "output" : "0\n",
    "index" : 1,
    "active" : true
  }, {
    "input" : "(()())\n",
    "output" : "1\n4\n1 2 5 6 \n",
    "index" : 2,
    "active" : true
  } ],
  "location" : "src/main",
  "vmArgs" : "-Xmx256M",
  "mainClass" : "Main",
  "taskClass" : "main.BKuroniAndSimpleStrings",
  "checkerClass" : "net.egork.chelper.checkers.TokenChecker",
  "checkerParameters" : "",
  "testClasses" : [ ],
  "date" : "2020.03.04",
  "contestName" : "Ozon Tech Challenge 2020 (Div.1 + Div.2, Rated, T-shirts + prizes!)",
  "truncate" : true,
  "inputClass" : "java.util.Scanner",
  "outputClass" : "java.io.PrintWriter",
  "includeLocale" : false,
  "failOnOverflow" : false,
  "interactive" : false,
  "interactor" : "net.egork.chelper.tester.Interactor"
}