{
  "name" : "E. Special Elements",
  "testType" : "SINGLE",
  "input" : {
    "type" : "STANDARD",
    "fileName" : "input.txt"
  },
  "output" : {
    "type" : "STANDARD",
    "fileName" : "output.txt"
  },
  "tests" : [ {
    "input" : "5\n9\n3 1 4 1 5 9 2 6 5\n3\n1 1 2\n5\n1 1 1 1 1\n8\n8 7 6 5 4 3 2 1\n1\n1\n",
    "output" : "5\n1\n0\n4\n0\n",
    "index" : 0,
    "active" : true
  } ],
  "location" : "src/de/eigenfunk",
  "vmArgs" : "-Xmx64M",
  "mainClass" : "Main",
  "taskClass" : "de.eigenfunk.ESpecialElements",
  "checkerClass" : "net.egork.chelper.checkers.TokenChecker",
  "checkerParameters" : "",
  "testClasses" : [ ],
  "date" : "2020.05.22",
  "contestName" : "Codeforces - Codeforces Round #640 (Div. 4)",
  "truncate" : true,
  "inputClass" : "fastIO.FastScanner",
  "outputClass" : "java.io.PrintWriter",
  "includeLocale" : false,
  "failOnOverflow" : false,
  "interactive" : false,
  "interactor" : "net.egork.chelper.tester.Interactor"
}