{
  "name" : "A. Exercising Walk",
  "testType" : "SINGLE",
  "input" : {
    "type" : "STANDARD",
    "fileName" : "input.txt"
  },
  "output" : {
    "type" : "STANDARD",
    "fileName" : "output.txt"
  },
  "tests" : [ {
    "input" : "6\n3 2 2 2\n0 0 -2 -2 2 2\n3 1 4 1\n0 0 -1 -1 1 1\n1 1 1 1\n1 1 1 1 1 1\n0 0 0 1\n0 0 0 0 0 1\n5 1 1 1\n0 0 -100 -100 0 100\n1 1 5 1\n0 0 -100 -100 100 0\n",
    "output" : "Yes\nNo\nNo\nYes\nYes\nYes\n",
    "index" : 0,
    "active" : true
  } ],
  "location" : "src/main",
  "vmArgs" : "-Xmx512M",
  "mainClass" : "Main",
  "taskClass" : "main.AExercisingWalk",
  "checkerClass" : "net.egork.chelper.checkers.TokenChecker",
  "checkerParameters" : "",
  "testClasses" : [ ],
  "date" : "2020.03.31",
  "contestName" : "Codeforces Round #630 (Div. 2)",
  "truncate" : true,
  "inputClass" : "java.util.Scanner",
  "outputClass" : "java.io.PrintWriter",
  "includeLocale" : false,
  "failOnOverflow" : false,
  "interactive" : false,
  "interactor" : "net.egork.chelper.tester.Interactor"
}