{
  "name" : "A. Love Triangle",
  "testType" : "SINGLE",
  "input" : {
    "type" : "STANDARD",
    "fileName" : "input.txt"
  },
  "output" : {
    "type" : "STANDARD",
    "fileName" : "output.txt"
  },
  "tests" : [ {
    "input" : "5\n2 4 5 1 3\n",
    "output" : "YES\n",
    "index" : 0,
    "active" : true
  }, {
    "input" : "5\n5 5 5 5 1\n",
    "output" : "NO\n",
    "index" : 1,
    "active" : true
  } ],
  "location" : "src/de/eigenfunk",
  "vmArgs" : "-Xmx256M",
  "mainClass" : "Main",
  "taskClass" : "de.eigenfunk.ALoveTriangle",
  "checkerClass" : "net.egork.chelper.checkers.TokenChecker",
  "checkerParameters" : "",
  "testClasses" : [ ],
  "date" : "2020.04.16",
  "contestName" : "Codeforces - Codeforces Round #464 (Div. 2)",
  "truncate" : true,
  "inputClass" : "fastIO.InputReader",
  "outputClass" : "java.io.PrintWriter",
  "includeLocale" : false,
  "failOnOverflow" : false,
  "interactive" : false,
  "interactor" : "net.egork.chelper.tester.Interactor"
}