{
  "name" : "A. Twins",
  "testType" : "SINGLE",
  "input" : {
    "type" : "STANDARD",
    "fileName" : "input.txt"
  },
  "output" : {
    "type" : "STANDARD",
    "fileName" : "output.txt"
  },
  "tests" : [ {
    "input" : "2\n3 3\n",
    "output" : "2\n",
    "index" : 0,
    "active" : true
  }, {
    "input" : "3\n2 1 2\n",
    "output" : "2\n",
    "index" : 1,
    "active" : true
  }, {
    "input" : "7\n1 10 1 2 1 1 1",
    "output" : "1",
    "index" : 2,
    "active" : true
  } ],
  "location" : "src/main",
  "vmArgs" : "-Xmx256M",
  "mainClass" : "Main",
  "taskClass" : "main.ATwins",
  "checkerClass" : "net.egork.chelper.checkers.TokenChecker",
  "checkerParameters" : "",
  "testClasses" : [ ],
  "date" : "2020.02.24",
  "contestName" : "Codeforces Round #111 (Div. 2)",
  "truncate" : true,
  "inputClass" : "java.util.Scanner",
  "outputClass" : "java.io.PrintWriter",
  "includeLocale" : false,
  "failOnOverflow" : false,
  "interactive" : false,
  "interactor" : "net.egork.chelper.tester.Interactor"
}