{
  "name" : "C. Product of Three Numbers",
  "testType" : "SINGLE",
  "input" : {
    "type" : "STANDARD",
    "fileName" : "input.txt"
  },
  "output" : {
    "type" : "STANDARD",
    "fileName" : "output.txt"
  },
  "tests" : [ {
    "input" : "5\n64\n32\n97\n2\n12345\n",
    "output" : "YES\n2 4 8 \nNO\nNO\nNO\nYES\n3 5 823 \n",
    "index" : 0,
    "active" : true
  } ],
  "location" : "src/de/eigenfunk",
  "vmArgs" : "-Xmx256M",
  "mainClass" : "Main",
  "taskClass" : "de.eigenfunk.CProductOfThreeNumbers",
  "checkerClass" : "net.egork.chelper.checkers.TokenChecker",
  "checkerParameters" : "",
  "testClasses" : [ ],
  "date" : "2020.05.17",
  "contestName" : "Codeforces - Codeforces Round #615 (Div. 3)",
  "truncate" : true,
  "inputClass" : "fastIO.InputReader",
  "outputClass" : "java.io.PrintWriter",
  "includeLocale" : false,
  "failOnOverflow" : false,
  "interactive" : false,
  "interactor" : "net.egork.chelper.tester.Interactor"
}