{
  "name" : "C - Nastya and Strange Generator",
  "testType" : "SINGLE",
  "input" : {
    "type" : "STANDARD"
  },
  "output" : {
    "type" : "STANDARD"
  },
  "tests" : [ {
    "input" : "5\n5\n2 3 4 5 1\n1\n1\n3\n1 3 2\n4\n4 2 3 1\n5\n1 5 2 4 3\n",
    "output" : "Yes\nYes\nNo\nYes\nNo\n",
    "index" : 0,
    "active" : true
  } ],
  "location" : "src/de/eigenfunk",
  "vmArgs" : "-Xmx256M",
  "mainClass" : "Main",
  "taskClass" : "de.eigenfunk.TaskC",
  "checkerClass" : "net.egork.chelper.checkers.TokenChecker",
  "checkerParameters" : "",
  "testClasses" : [ ],
  "date" : "2020.04.23",
  "contestName" : "Codeforces Round #637 (Div. 2) - Thanks, Ivan Belonogov!",
  "truncate" : true,
  "inputClass" : "fastIO.InputReader",
  "outputClass" : "java.io.PrintWriter",
  "includeLocale" : false,
  "failOnOverflow" : false,
  "interactive" : false
}