{
  "name" : "C. Registration system",
  "testType" : "SINGLE",
  "input" : {
    "type" : "STANDARD",
    "fileName" : "input.txt"
  },
  "output" : {
    "type" : "STANDARD",
    "fileName" : "output.txt"
  },
  "tests" : [ {
    "input" : "4\nabacaba\nacaba\nabacaba\nacab\n",
    "output" : "OK\nOK\nabacaba1\nOK\n",
    "index" : 0,
    "active" : true
  }, {
    "input" : "6\nfirst\nfirst\nsecond\nsecond\nthird\nthird\n",
    "output" : "OK\nfirst1\nOK\nsecond1\nOK\nthird1\n",
    "index" : 1,
    "active" : true
  } ],
  "location" : "src/de/eigenfunk",
  "vmArgs" : "-Xmx64M",
  "mainClass" : "Main",
  "taskClass" : "de.eigenfunk.CRegistrationSystem",
  "checkerClass" : "net.egork.chelper.checkers.TokenChecker",
  "checkerParameters" : "",
  "testClasses" : [ ],
  "date" : "2020.05.08",
  "contestName" : "Codeforces - Codeforces Beta Round #4 (Div. 2 Only)",
  "truncate" : true,
  "inputClass" : "fastIO.InputReader",
  "outputClass" : "java.io.PrintWriter",
  "includeLocale" : false,
  "failOnOverflow" : false,
  "interactive" : false,
  "interactor" : "net.egork.chelper.tester.Interactor"
}