{
  "name" : "C. Count Triangles",
  "testType" : "SINGLE",
  "input" : {
    "type" : "STANDARD",
    "fileName" : "input.txt"
  },
  "output" : {
    "type" : "STANDARD",
    "fileName" : "output.txt"
  },
  "tests" : [ {
    "input" : "1 2 3 4\n",
    "output" : "4\n",
    "index" : 0,
    "active" : true
  }, {
    "input" : "1 2 2 5\n",
    "output" : "3\n",
    "index" : 1,
    "active" : true
  }, {
    "input" : "500000 500000 500000 500000\n",
    "output" : "1\n",
    "index" : 2,
    "active" : true
  } ],
  "location" : "src/de/eigenfunk",
  "vmArgs" : "-Xmx256M",
  "mainClass" : "Main",
  "taskClass" : "de.eigenfunk.CCountTriangles",
  "checkerClass" : "net.egork.chelper.checkers.TokenChecker",
  "checkerParameters" : "",
  "testClasses" : [ ],
  "date" : "2020.05.16",
  "contestName" : "Codeforces - Codeforces Round #643 (Div. 2)",
  "truncate" : true,
  "inputClass" : "fastIO.InputReader",
  "outputClass" : "java.io.PrintWriter",
  "includeLocale" : false,
  "failOnOverflow" : false,
  "interactive" : false,
  "interactor" : "net.egork.chelper.tester.Interactor"
}