{
  "name" : "Drawing Book",
  "testType" : "SINGLE",
  "input" : {
    "type" : "STANDARD",
    "fileName" : "input.txt"
  },
  "output" : {
    "type" : "STANDARD",
    "fileName" : "output.txt"
  },
  "tests" : [ {
    "input" : "6\n2\n",
    "output" : "1\n",
    "index" : 0,
    "active" : true
  }, {
    "input" : "5\n4\n",
    "output" : "0\n",
    "index" : 1,
    "active" : true
  } ],
  "location" : "src/de/eigenfunk",
  "vmArgs" : "-Xmx512M",
  "mainClass" : "Main",
  "taskClass" : "de.eigenfunk.DrawingBook",
  "checkerClass" : "net.egork.chelper.checkers.TokenChecker",
  "checkerParameters" : "",
  "testClasses" : [ ],
  "date" : "2020.04.29",
  "contestName" : "HackerRank - Algorithms - Implementation",
  "truncate" : true,
  "inputClass" : "fastIO.InputReader",
  "outputClass" : "java.io.PrintWriter",
  "includeLocale" : false,
  "failOnOverflow" : false,
  "interactive" : false,
  "interactor" : "net.egork.chelper.tester.Interactor"
}