{
  "name" : "B. Limericks",
  "testType" : "SINGLE",
  "input" : {
    "type" : "STANDARD",
    "fileName" : "input.txt"
  },
  "output" : {
    "type" : "STANDARD",
    "fileName" : "output.txt"
  },
  "tests" : [ {
    "input" : "35\n",
    "output" : "57\n",
    "index" : 0,
    "active" : true
  }, {
    "input" : "57\n",
    "output" : "319\n",
    "index" : 1,
    "active" : true
  }, {
    "input" : "391\n",
    "output" : "1723\n",
    "index" : 2,
    "active" : true
  } ],
  "location" : "src/main",
  "vmArgs" : "-Xmx256M",
  "mainClass" : "Main",
  "taskClass" : "main.BLimericks",
  "checkerClass" : "net.egork.chelper.checkers.TokenChecker",
  "checkerParameters" : "",
  "testClasses" : [ ],
  "date" : "2020.04.01",
  "contestName" : "April Fools Day Contest 2020",
  "truncate" : true,
  "inputClass" : "java.util.Scanner",
  "outputClass" : "java.io.PrintWriter",
  "includeLocale" : false,
  "failOnOverflow" : false,
  "interactive" : false,
  "interactor" : "net.egork.chelper.tester.Interactor"
}