{
  "name" : "G. A/B Matrix",
  "testType" : "SINGLE",
  "input" : {
    "type" : "STANDARD",
    "fileName" : "input.txt"
  },
  "output" : {
    "type" : "STANDARD",
    "fileName" : "output.txt"
  },
  "tests" : [ {
    "input" : "5\n3 6 2 1\n2 2 2 1\n2 2 2 2\n4 4 2 2\n2 1 1 2\n",
    "output" : "YES\n010001\n100100\n001010\nNO\nYES\n11\n11\nYES\n1100\n1100\n0011\n0011\nYES\n1\n1\n",
    "index" : 0,
    "active" : false
  }, {
    "input" : "1\n17 17 13 13",
    "output" : "YES\n11111111111110000\n01111111111111000\n00111111111111100\n00011111111111110\n00001111111111111\n10000111111111111\n11000011111111111\n11100001111111111\n11110000111111111\n11111000011111111\n11111100001111111\n11111110000111111\n11111111000011111\n11111111100001111\n11111111110000111\n11111111111000011\n11111111111100001",
    "index" : 1,
    "active" : true
  } ],
  "location" : "src/de/eigenfunk",
  "vmArgs" : "-Xmx256M",
  "mainClass" : "Main",
  "taskClass" : "de.eigenfunk.GABMatrix",
  "checkerClass" : "net.egork.chelper.checkers.TokenChecker",
  "checkerParameters" : "",
  "testClasses" : [ ],
  "date" : "2020.05.24",
  "contestName" : "Codeforces - Codeforces Round #644 (Div. 3)",
  "truncate" : true,
  "inputClass" : "fastIO.FastScanner",
  "outputClass" : "java.io.PrintWriter",
  "includeLocale" : false,
  "failOnOverflow" : false,
  "interactive" : false,
  "interactor" : "net.egork.chelper.tester.Interactor"
}