{
  "name" : "A. Boy or Girl",
  "testType" : "SINGLE",
  "input" : {
    "type" : "STANDARD",
    "fileName" : "input.txt"
  },
  "output" : {
    "type" : "STANDARD",
    "fileName" : "output.txt"
  },
  "tests" : [ {
    "input" : "wjmzbmr\n",
    "output" : "CHAT WITH HER!\n",
    "index" : 0,
    "active" : true
  }, {
    "input" : "xiaodao\n",
    "output" : "IGNORE HIM!\n",
    "index" : 1,
    "active" : true
  }, {
    "input" : "sevenkplus\n",
    "output" : "CHAT WITH HER!\n",
    "index" : 2,
    "active" : true
  } ],
  "location" : "src/de/eigenfunk",
  "vmArgs" : "-Xmx256M",
  "mainClass" : "Main",
  "taskClass" : "de.eigenfunk.ABoyOrGirl",
  "checkerClass" : "net.egork.chelper.checkers.TokenChecker",
  "checkerParameters" : "",
  "testClasses" : [ ],
  "date" : "2020.04.29",
  "contestName" : "Codeforces - Codeforces Round #146 (Div. 2)",
  "truncate" : true,
  "inputClass" : "fastIO.InputReader",
  "outputClass" : "java.io.PrintWriter",
  "includeLocale" : false,
  "failOnOverflow" : false,
  "interactive" : false,
  "interactor" : "net.egork.chelper.tester.Interactor"
}