{
  "name" : "A. New Year and Naming",
  "testType" : "SINGLE",
  "input" : {
    "type" : "STANDARD",
    "fileName" : "input.txt"
  },
  "output" : {
    "type" : "STANDARD",
    "fileName" : "output.txt"
  },
  "tests" : [ {
    "input" : "10 12\nsin im gye gap eul byeong jeong mu gi gyeong\nyu sul hae ja chuk in myo jin sa o mi sin\n14\n1\n2\n3\n4\n10\n11\n12\n13\n73\n2016\n2017\n2018\n2019\n2020\n",
    "output" : "sinyu\nimsul\ngyehae\ngapja\ngyeongo\nsinmi\nimsin\ngyeyu\ngyeyu\nbyeongsin\njeongyu\nmusul\ngihae\ngyeongja\n",
    "index" : 0,
    "active" : true
  } ],
  "location" : "src/de/eigenfunk",
  "vmArgs" : "-Xmx1024M",
  "mainClass" : "Main",
  "taskClass" : "de.eigenfunk.ANewYearAndNaming",
  "checkerClass" : "net.egork.chelper.checkers.TokenChecker",
  "checkerParameters" : "",
  "testClasses" : [ ],
  "date" : "2020.04.15",
  "contestName" : "Hello 2020",
  "truncate" : true,
  "inputClass" : "fastIO.InputReader",
  "outputClass" : "java.io.PrintWriter",
  "includeLocale" : false,
  "failOnOverflow" : false,
  "interactive" : false,
  "interactor" : "net.egork.chelper.tester.Interactor"
}