{
  "name" : "Grading Students",
  "testType" : "SINGLE",
  "input" : {
    "type" : "STANDARD",
    "fileName" : "input.txt"
  },
  "output" : {
    "type" : "STANDARD",
    "fileName" : "output.txt"
  },
  "tests" : [ {
    "input" : "4\n73\n67\n38\n33\n",
    "output" : "75\n67\n40\n33\n",
    "index" : 0,
    "active" : true
  } ],
  "location" : "src/main",
  "vmArgs" : "-Xmx512M",
  "mainClass" : "Main",
  "taskClass" : "main.GradingStudents",
  "checkerClass" : "net.egork.chelper.checkers.TokenChecker",
  "checkerParameters" : "",
  "testClasses" : [ ],
  "date" : "2020.03.30",
  "contestName" : "HackerRank - Algorithms - Implementation",
  "truncate" : true,
  "inputClass" : "java.util.Scanner",
  "outputClass" : "java.io.PrintWriter",
  "includeLocale" : false,
  "failOnOverflow" : false,
  "interactive" : false,
  "interactor" : "net.egork.chelper.tester.Interactor"
}