{
  "name" : "C - ThREE",
  "testType" : "SINGLE",
  "input" : {
    "type" : "STANDARD",
    "fileName" : "input.txt"
  },
  "output" : {
    "type" : "STANDARD",
    "fileName" : "output.txt"
  },
  "tests" : [ {
    "input" : "5\n1 2\n1 3\n3 4\n3 5\n",
    "output" : "1 2 5 4 3 \n",
    "index" : 0,
    "active" : true
  } ],
  "location" : "src/main",
  "vmArgs" : "-Xmx1024M",
  "mainClass" : "Main",
  "taskClass" : "main.CThREE",
  "checkerClass" : "net.egork.chelper.checkers.TokenChecker",
  "checkerParameters" : "",
  "testClasses" : [ ],
  "date" : "2020.03.08",
  "contestName" : "Social Infrastructure Information Systems Division, Hitachi Programming Contest 2020",
  "truncate" : true,
  "inputClass" : "java.util.Scanner",
  "outputClass" : "java.io.PrintWriter",
  "includeLocale" : false,
  "failOnOverflow" : false,
  "interactive" : false,
  "interactor" : "net.egork.chelper.tester.Interactor"
}