{
  "name" : "D - Manga Market",
  "testType" : "SINGLE",
  "input" : {
    "type" : "STANDARD",
    "fileName" : "input.txt"
  },
  "output" : {
    "type" : "STANDARD",
    "fileName" : "output.txt"
  },
  "tests" : [ {
    "input" : "3 7\n2 0\n3 2\n0 3\n",
    "output" : "2\n",
    "index" : 0,
    "active" : true
  }, {
    "input" : "1 3\n0 3\n",
    "output" : "0\n",
    "index" : 1,
    "active" : true
  }, {
    "input" : "5 21600\n2 14\n3 22\n1 3\n1 10\n1 9\n",
    "output" : "5\n",
    "index" : 2,
    "active" : true
  }, {
    "input" : "7 57\n0 25\n3 10\n2 4\n5 15\n3 22\n2 14\n1 15\n",
    "output" : "3\n",
    "index" : 3,
    "active" : true
  } ],
  "location" : "src/main",
  "vmArgs" : "-Xmx1024M",
  "mainClass" : "Main",
  "taskClass" : "main.DMangaMarket",
  "checkerClass" : "net.egork.chelper.checkers.TokenChecker",
  "checkerParameters" : "",
  "testClasses" : [ ],
  "date" : "2020.03.08",
  "contestName" : "Social Infrastructure Information Systems Division, Hitachi Programming Contest 2020",
  "truncate" : true,
  "inputClass" : "java.util.Scanner",
  "outputClass" : "java.io.PrintWriter",
  "includeLocale" : false,
  "failOnOverflow" : false,
  "interactive" : false,
  "interactor" : "net.egork.chelper.tester.Interactor"
}