{
  "name" : "B. Sort the Array",
  "testType" : "SINGLE",
  "input" : {
    "type" : "STANDARD",
    "fileName" : "input.txt"
  },
  "output" : {
    "type" : "STANDARD",
    "fileName" : "output.txt"
  },
  "tests" : [ {
    "input" : "3\n3 2 1\n",
    "output" : "yes\n1 3\n",
    "index" : 0,
    "active" : true
  }, {
    "input" : "4\n2 1 3 4\n",
    "output" : "yes\n1 2\n",
    "index" : 1,
    "active" : true
  }, {
    "input" : "4\n3 1 2 4\n",
    "output" : "no\n",
    "index" : 2,
    "active" : true
  }, {
    "input" : "2\n1 2\n",
    "output" : "yes\n1 1\n",
    "index" : 3,
    "active" : true
  }, {
    "input" : "9\n6 78 63 59 28 24 8 96 99",
    "output" : "yes\n2 7",
    "index" : 4,
    "active" : true
  }, {
    "input" : "5\n2 5 4 3 1",
    "output" : "no",
    "index" : 5,
    "active" : true
  } ],
  "location" : "src/de/eigenfunk",
  "vmArgs" : "-Xmx256M",
  "mainClass" : "Main",
  "taskClass" : "de.eigenfunk.BSortTheArray",
  "checkerClass" : "net.egork.chelper.checkers.TokenChecker",
  "checkerParameters" : "",
  "testClasses" : [ ],
  "date" : "2020.05.13",
  "contestName" : "Codeforces - Codeforces Round #258 (Div. 2)",
  "truncate" : true,
  "inputClass" : "fastIO.InputReader",
  "outputClass" : "java.io.PrintWriter",
  "includeLocale" : false,
  "failOnOverflow" : false,
  "interactive" : false,
  "interactor" : "net.egork.chelper.tester.Interactor"
}