{
  "name" : "B. Yet Another Palindrome Problem",
  "testType" : "SINGLE",
  "input" : {
    "type" : "STANDARD",
    "fileName" : "input.txt"
  },
  "output" : {
    "type" : "STANDARD",
    "fileName" : "output.txt"
  },
  "tests" : [ {
    "input" : "5\n3\n1 2 1\n5\n1 2 2 3 2\n3\n1 1 2\n4\n1 2 2 1\n10\n1 1 2 2 3 3 4 4 5 5\n",
    "output" : "YES\nYES\nNO\nYES\nNO\n",
    "index" : 0,
    "active" : false
  }, {
    "input" : "1\n3\n1 1 1",
    "output" : "",
    "index" : 1,
    "active" : false
  }, {
    "input" : "1\n5\n5 5 5 5 5",
    "output" : "",
    "index" : 2,
    "active" : true
  } ],
  "location" : "src/main",
  "vmArgs" : "-Xmx256M",
  "mainClass" : "Main",
  "taskClass" : "main.BYetAnotherPalindromeProblem",
  "checkerClass" : "net.egork.chelper.checkers.TokenChecker",
  "checkerParameters" : "",
  "testClasses" : [ ],
  "date" : "2020.03.12",
  "contestName" : "Codeforces Round #627 (Div. 3)",
  "truncate" : true,
  "inputClass" : "java.util.Scanner",
  "outputClass" : "java.io.PrintWriter",
  "includeLocale" : false,
  "failOnOverflow" : false,
  "interactive" : false,
  "interactor" : "net.egork.chelper.tester.Interactor"
}